{
  "posts": [
    {
      "id": 1,
      "title": "json-server",
      "author": "typicode"
    }
  ],
  "comments": [
    {
      "id": 1,
      "body": "some comment",
      "postId": 1
    }
  ],
  "profile": {
    "username": "admin",
    "lastname": "Иванович",
    "firstname": "Иван"
  },
  "users": [
    {
      "id": 1,
      "username": "admin",
      "password": "123",
      "role": "admin"
    },
    {
      "id": 2,
      "username": "user",
      "password": "123",
      "role": "user"
    }
  ],
  "dates": [
    {
      "id": "1",
      "userId": 1,
      "title": "",
      "start": "2023-03-19T07:00:00+03:00",
      "end": "2023-03-19T07:30:00+03:00",
      "allDay": false,
      "editable": false,
      "extendedProps": {
        "lastname": "Иванович",
        "firstname": "Иван",
        "phone": "12345"
      },
      "description": ""
    },
    {
      "id": "2",
      "userId": 1,
      "title": "",
      "start": "2023-03-18T14:00:00+03:00",
      "end": "2023-03-18T14:30:00+03:00",
      "allDay": false,
      "editable": true,
      "description": ""
    },
    {
      "id": "H7bBwYQ",
      "userId": 1,
      "start": "2023-03-31T09:30:00+03:00",
      "end": "2023-03-31T10:00:00+03:00",
      "allDay": false
    },
    {
      "id": "5BodK2t",
      "userId": 1,
      "start": "2023-04-01T09:00:00+03:00",
      "end": "2023-04-01T09:30:00+03:00",
      "allDay": false
    },
    {
      "id": "JsVozqB",
      "userId": 1,
      "start": "2023-04-01T07:30:00+03:00",
      "end": "2023-04-01T08:30:00+03:00",
      "allDay": false
    },
    {
      "id": "JeXcNlx",
      "userId": 1,
      "start": "2023-04-01T07:30:00+03:00",
      "end": "2023-04-01T08:30:00+03:00",
      "allDay": false
    },
    {
      "id": "xeLfBSC",
      "userId": 1,
      "start": "2023-04-01T11:00:00+03:00",
      "end": "2023-04-01T12:00:00+03:00",
      "allDay": false
    },
    {
      "id": "lvzegp9",
      "userId": 1,
      "start": "2023-04-01T12:00:00+03:00",
      "end": "2023-04-01T12:30:00+03:00",
      "allDay": false
    },
    {
      "id": "4THpmrC",
      "userId": 1,
      "start": "2023-03-31T13:00:00+03:00",
      "end": "2023-03-31T13:30:00+03:00",
      "allDay": false
    },
    {
      "id": "PBbQCHe",
      "userId": 1,
      "start": "2023-04-02T09:00:00+03:00",
      "end": "2023-04-02T09:30:00+03:00",
      "allDay": false
    },
    {
      "id": "B7gVuRE",
      "userId": 1,
      "start": "2023-04-02T09:30:00+03:00",
      "end": "2023-04-02T10:00:00+03:00",
      "allDay": false
    },
    {
      "id": "bMDAFbt",
      "userId": 1,
      "start": "2023-03-30",
      "end": "2023-03-31",
      "allDay": true
    },
    {
      "id": "fhRk3S9",
      "userId": 1,
      "start": "2023-04-01T06:30:00+03:00",
      "end": "2023-04-01T07:00:00+03:00",
      "allDay": false
    },
    {
      "id": "hrX8F_r",
      "userId": 1,
      "start": "2023-03-30T08:30:00+03:00",
      "end": "2023-03-30T09:00:00+03:00",
      "allDay": false
    },
    {
      "id": "UE1XQRe",
      "userId": 1,
      "start": "2023-03-31T04:30:00+03:00",
      "end": "2023-03-31T05:00:00+03:00",
      "allDay": false
    },
    {
      "id": "sMBgyo5",
      "userId": 1,
      "start": "2023-03-31T04:30:00+03:00",
      "end": "2023-03-31T05:00:00+03:00",
      "allDay": false
    },
    {
      "id": "r7Q8HbZ",
      "userId": 1,
      "start": "2023-03-31T04:30:00+03:00",
      "end": "2023-03-31T05:00:00+03:00",
      "allDay": false
    },
    {
      "id": "w2duJCs",
      "userId": 1,
      "start": "2023-03-31T04:30:00+03:00",
      "end": "2023-03-31T05:00:00+03:00",
      "allDay": false
    },
    {
      "id": "GbhEprR",
      "userId": 1,
      "start": "2023-03-31T04:30:00+03:00",
      "end": "2023-03-31T05:00:00+03:00",
      "allDay": false
    },
    {
      "id": "Y5HLAtd",
      "userId": 1,
      "start": "2023-03-31T04:30:00+03:00",
      "end": "2023-03-31T05:00:00+03:00",
      "allDay": false
    },
    {
      "id": "pKCLAjw",
      "userId": 1,
      "start": "2023-04-01T05:00:00+03:00",
      "end": "2023-04-01T05:30:00+03:00",
      "allDay": false
    },
    {
      "id": "X4jwye5",
      "userId": 1,
      "start": "2023-04-02T08:30:00+03:00",
      "end": "2023-04-02T09:00:00+03:00",
      "allDay": false
    },
    {
      "id": "E8JyjjG",
      "userId": 1,
      "start": "2023-04-02T07:30:00+03:00",
      "end": "2023-04-02T08:00:00+03:00",
      "allDay": false
    },
    {
      "id": "xXZHV0F",
      "userId": 1,
      "start": "2023-04-02T10:30:00+03:00",
      "end": "2023-04-02T11:00:00+03:00",
      "allDay": false
    },
    {
      "id": "frDPJ4s",
      "userId": 1,
      "start": "2023-04-02T05:00:00+03:00",
      "end": "2023-04-02T06:00:00+03:00",
      "allDay": false
    },
    {
      "id": "5VOYUoz",
      "userId": 1,
      "start": "2023-04-02T02:30:00+03:00",
      "end": "2023-04-02T03:30:00+03:00",
      "allDay": false
    },
    {
      "id": "8I8Wl2z",
      "userId": 1,
      "start": "2023-04-02T03:30:00+03:00",
      "end": "2023-04-02T04:00:00+03:00",
      "allDay": false
    },
    {
      "id": "PQwnSvP",
      "userId": 1,
      "start": "2023-03-29T05:00:00+03:00",
      "end": "2023-03-29T06:00:00+03:00",
      "allDay": false
    },
    {
      "id": "ig7bH-G",
      "userId": 1,
      "start": "2023-03-30T02:30:00+03:00",
      "end": "2023-03-30T03:00:00+03:00",
      "allDay": false
    },
    {
      "id": "bpKdKX0",
      "userId": 1,
      "start": "2023-03-30T09:30:00+03:00",
      "end": "2023-03-30T10:00:00+03:00",
      "allDay": false
    },
    {
      "id": "neZrsoV",
      "userId": 1,
      "start": "2023-03-30T09:30:00+03:00",
      "end": "2023-03-30T10:00:00+03:00",
      "allDay": false
    },
    {
      "id": "-W0MIL_",
      "userId": 1,
      "start": "2023-03-30T09:30:00+03:00",
      "end": "2023-03-30T10:00:00+03:00",
      "allDay": false
    },
    {
      "id": "n-Q-Wmw",
      "userId": 1,
      "start": "2023-03-29T05:30:00+03:00",
      "end": "2023-03-29T06:00:00+03:00",
      "allDay": false
    },
    {
      "id": "HjdS2Ao",
      "userId": 1,
      "start": "2023-03-29T05:30:00+03:00",
      "end": "2023-03-29T06:00:00+03:00",
      "allDay": false
    },
    {
      "id": "yQ5qm2l",
      "userId": 1,
      "start": "2023-03-31T02:00:00+03:00",
      "end": "2023-03-31T02:30:00+03:00",
      "allDay": false
    },
    {
      "id": "HmChgd-",
      "userId": 1,
      "start": "2023-03-29T07:30:00+03:00",
      "end": "2023-03-29T08:00:00+03:00",
      "allDay": false
    },
    {
      "id": "irpvimd",
      "userId": 1,
      "start": "2023-03-31T00:00:00+03:00",
      "end": "2023-03-31T00:30:00+03:00",
      "allDay": false
    },
    {
      "id": "EkEUBdB",
      "userId": 1,
      "start": "2023-03-31T03:00:00+03:00",
      "end": "2023-03-31T03:30:00+03:00",
      "allDay": false
    },
    {
      "id": "OBv0I9A",
      "userId": 1,
      "start": "2023-03-31T05:00:00+03:00",
      "end": "2023-03-31T05:30:00+03:00",
      "allDay": false
    },
    {
      "id": "KVlZilp",
      "userId": 1,
      "start": "2023-03-31T05:30:00+03:00",
      "end": "2023-03-31T06:00:00+03:00",
      "allDay": false
    },
    {
      "id": "gCbdQQM",
      "userId": 1,
      "start": "2023-03-30T05:30:00+03:00",
      "end": "2023-03-30T06:00:00+03:00",
      "allDay": false
    },
    {
      "id": "XJop0zd",
      "userId": 1,
      "start": "2023-03-30T06:00:00+03:00",
      "end": "2023-03-30T06:30:00+03:00",
      "allDay": false
    },
    {
      "id": "o3Sneb7",
      "userId": 1,
      "start": "2023-03-30T06:00:00+03:00",
      "end": "2023-03-30T06:30:00+03:00",
      "allDay": false
    },
    {
      "id": "ZJcST8U",
      "userId": 1,
      "start": "2023-03-30T06:00:00+03:00",
      "end": "2023-03-30T06:30:00+03:00",
      "allDay": false
    },
    {
      "id": "ighAEub",
      "userId": 1,
      "start": "2023-03-30T06:30:00+03:00",
      "end": "2023-03-30T07:00:00+03:00",
      "allDay": false
    },
    {
      "id": "aaAZ_H1",
      "userId": 1,
      "start": "2023-03-30T07:00:00+03:00",
      "end": "2023-03-30T08:00:00+03:00",
      "allDay": false
    },
    {
      "id": "MNkMkqb",
      "userId": 1,
      "start": "2023-04-01T01:30:00+03:00",
      "end": "2023-04-01T02:00:00+03:00",
      "allDay": false
    },
    {
      "id": "XbzXwXG",
      "userId": 1,
      "start": "2023-03-31T03:30:00+03:00",
      "end": "2023-03-31T04:00:00+03:00",
      "allDay": false
    },
    {
      "id": "QoY6JSW",
      "userId": 1,
      "start": "2023-03-31T03:30:00+03:00",
      "end": "2023-03-31T04:00:00+03:00",
      "allDay": false
    },
    {
      "id": "p7bxQ4m",
      "userId": 1,
      "start": "2023-03-31T03:30:00+03:00",
      "end": "2023-03-31T04:00:00+03:00",
      "allDay": false
    },
    {
      "id": "DBkqiFu",
      "userId": 1,
      "start": "2023-03-31T03:30:00+03:00",
      "end": "2023-03-31T04:00:00+03:00",
      "allDay": false
    },
    {
      "id": "S7dpSB3",
      "userId": 1,
      "start": "2023-03-27T04:00:00+03:00",
      "end": "2023-03-27T04:30:00+03:00",
      "allDay": false
    },
    {
      "id": "_LNjMGe",
      "userId": 1,
      "start": "2023-03-27T04:00:00+03:00",
      "end": "2023-03-27T04:30:00+03:00",
      "allDay": false
    },
    {
      "id": "12kz4-i",
      "userId": 1,
      "start": "2023-03-27T04:00:00+03:00",
      "end": "2023-03-27T04:30:00+03:00",
      "allDay": false
    },
    {
      "id": "rneI5aZ",
      "userId": 1,
      "start": "2023-03-29T09:00:00+03:00",
      "end": "2023-03-29T09:30:00+03:00",
      "allDay": false
    },
    {
      "id": "ZCVJIMI",
      "userId": 1,
      "start": "2023-03-29T09:30:00+03:00",
      "end": "2023-03-29T10:00:00+03:00",
      "allDay": false
    },
    {
      "id": "1XtQPhR",
      "userId": 1,
      "start": "2023-03-29T09:30:00+03:00",
      "end": "2023-03-29T10:00:00+03:00",
      "allDay": false
    },
    {
      "id": "TaCSfpS",
      "userId": 1,
      "start": "2023-03-29T09:30:00+03:00",
      "end": "2023-03-29T10:00:00+03:00",
      "allDay": false
    },
    {
      "id": "wCm21yw",
      "userId": 1,
      "start": "2023-03-29T09:30:00+03:00",
      "end": "2023-03-29T10:00:00+03:00",
      "allDay": false
    },
    {
      "id": "9--bX_b",
      "userId": 1,
      "start": "2023-03-29T10:00:00+03:00",
      "end": "2023-03-29T10:30:00+03:00",
      "allDay": false
    },
    {
      "id": "mHFag_M",
      "userId": 1,
      "start": "2023-03-29T10:00:00+03:00",
      "end": "2023-03-29T10:30:00+03:00",
      "allDay": false
    },
    {
      "id": "5gc6bpr",
      "userId": 1,
      "start": "2023-03-29T10:00:00+03:00",
      "end": "2023-03-29T10:30:00+03:00",
      "allDay": false
    },
    {
      "id": "AJuygLo",
      "userId": 1,
      "start": "2023-03-30T10:30:00+03:00",
      "end": "2023-03-30T11:00:00+03:00",
      "allDay": false
    },
    {
      "id": "gja_o2H",
      "userId": 1,
      "start": "2023-03-31T10:30:00+03:00",
      "end": "2023-03-31T11:00:00+03:00",
      "allDay": false
    },
    {
      "id": "5U9dEGt",
      "userId": 1,
      "start": "2023-03-30T11:00:00+03:00",
      "end": "2023-03-30T11:30:00+03:00",
      "allDay": false
    },
    {
      "id": "Y5QixLi",
      "userId": 1,
      "start": "2023-03-30T11:00:00+03:00",
      "end": "2023-03-30T11:30:00+03:00",
      "allDay": false
    },
    {
      "id": "Y_M_SOr",
      "userId": 1,
      "start": "2023-03-30T12:00:00+03:00",
      "end": "2023-03-30T12:30:00+03:00",
      "allDay": false
    },
    {
      "id": "tVrmRsv",
      "userId": 1,
      "start": "2023-03-30T12:30:00+03:00",
      "end": "2023-03-30T13:00:00+03:00",
      "allDay": false
    },
    {
      "id": "MNY3wud",
      "userId": 1,
      "start": "2023-03-30T13:00:00+03:00",
      "end": "2023-03-30T13:30:00+03:00",
      "allDay": false
    },
    {
      "id": "dMoORYG",
      "userId": 1,
      "start": "2023-03-30T13:00:00+03:00",
      "end": "2023-03-30T13:30:00+03:00",
      "allDay": false
    },
    {
      "id": "otkGAU_",
      "userId": 1,
      "start": "2023-03-29T03:30:00+03:00",
      "end": "2023-03-29T04:00:00+03:00",
      "allDay": false
    },
    {
      "id": "BJdyC2s",
      "userId": 1,
      "start": "2023-03-29T03:30:00+03:00",
      "end": "2023-03-29T04:00:00+03:00",
      "allDay": false
    },
    {
      "id": "4FRc4lV",
      "userId": 1,
      "start": "2023-03-29T03:30:00+03:00",
      "end": "2023-03-29T04:00:00+03:00",
      "allDay": false
    },
    {
      "id": "YNGxQRD",
      "userId": 1,
      "start": "2023-03-29T03:30:00+03:00",
      "end": "2023-03-29T04:00:00+03:00",
      "allDay": false
    },
    {
      "id": "FH6Iz0b",
      "userId": 1,
      "start": "2023-03-29T03:30:00+03:00",
      "end": "2023-03-29T04:00:00+03:00",
      "allDay": false
    },
    {
      "id": "-SA-0qZ",
      "userId": 1,
      "start": "2023-03-29T05:00:00+03:00",
      "end": "2023-03-29T05:30:00+03:00",
      "allDay": false
    },
    {
      "id": "-bAcbfo",
      "userId": 1,
      "start": "2023-03-31T08:30:00+03:00",
      "end": "2023-03-31T09:00:00+03:00",
      "allDay": false
    },
    {
      "id": "z71hvSi",
      "userId": 1,
      "start": "2023-04-01T11:30:00+03:00",
      "end": "2023-04-01T12:00:00+03:00",
      "allDay": false
    },
    {
      "id": "ZBgRk6k",
      "userId": 1,
      "start": "2023-03-31T12:00:00+03:00",
      "end": "2023-03-31T12:30:00+03:00",
      "allDay": false
    },
    {
      "id": "OsiYAxe",
      "userId": 1,
      "start": "2023-04-01T14:00:00+03:00",
      "end": "2023-04-01T14:30:00+03:00",
      "allDay": false
    },
    {
      "id": "t8pwhr6",
      "userId": 1,
      "start": "2023-04-01T14:00:00+03:00",
      "end": "2023-04-01T14:30:00+03:00",
      "allDay": false
    },
    {
      "id": "hy70YM-",
      "userId": 1,
      "start": "2023-03-31T13:30:00+03:00",
      "end": "2023-03-31T14:00:00+03:00",
      "allDay": false
    },
    {
      "id": "dxmPxHT",
      "userId": 1,
      "start": "2023-03-31T13:30:00+03:00",
      "end": "2023-03-31T14:00:00+03:00",
      "allDay": false
    },
    {
      "id": "HLWdb5q",
      "userId": 1,
      "start": "2023-03-31T13:30:00+03:00",
      "end": "2023-03-31T14:00:00+03:00",
      "allDay": false
    },
    {
      "id": "cpyENSL",
      "userId": 1,
      "start": "2023-03-31T13:30:00+03:00",
      "end": "2023-03-31T14:00:00+03:00",
      "allDay": false
    },
    {
      "id": "yNf9awB",
      "userId": 1,
      "start": "2023-03-31T13:30:00+03:00",
      "end": "2023-03-31T14:00:00+03:00",
      "allDay": false
    },
    {
      "id": "6BeDIQg",
      "userId": 1,
      "start": "2023-03-31T13:30:00+03:00",
      "end": "2023-03-31T14:00:00+03:00",
      "allDay": false
    },
    {
      "id": "g6NJc0s",
      "userId": 1,
      "start": "2023-03-30T14:30:00+03:00",
      "end": "2023-03-30T15:00:00+03:00",
      "allDay": false
    },
    {
      "id": "GVJ8fZr",
      "userId": 1,
      "start": "2023-04-01T02:30:00+03:00",
      "end": "2023-04-01T03:00:00+03:00",
      "allDay": false
    },
    {
      "id": "y5_lL1E",
      "userId": 1,
      "start": "2023-03-30T05:00:00+03:00",
      "end": "2023-03-30T05:30:00+03:00",
      "allDay": false
    },
    {
      "id": "xfauuTF",
      "userId": 1,
      "start": "2023-04-20T02:30:00+03:00",
      "end": "2023-04-20T03:00:00+03:00",
      "allDay": false
    },
    {
      "id": "DgLcEiC",
      "userId": 1,
      "start": "2023-04-13T10:30:00+03:00",
      "end": "2023-04-13T11:00:00+03:00",
      "allDay": false
    },
    {
      "id": "CpcATW-",
      "userId": 1,
      "start": "2023-04-14T12:00:00+03:00",
      "end": "2023-04-14T12:30:00+03:00",
      "allDay": false
    },
    {
      "id": "jSs3KZB",
      "userId": 1,
      "start": "2023-04-10T10:30:00+03:00",
      "end": "2023-04-10T11:00:00+03:00",
      "allDay": false
    },
    {
      "id": "nwauuXB",
      "userId": 1,
      "start": "2023-04-14T11:00:00+03:00",
      "end": "2023-04-14T11:30:00+03:00",
      "allDay": false
    },
    {
      "id": "_GGn6cO",
      "userId": 1,
      "start": "2023-04-14T13:30:00+03:00",
      "end": "2023-04-14T14:00:00+03:00",
      "allDay": false
    },
    {
      "id": "_i6pTK8",
      "userId": 1,
      "start": "2023-04-15T15:30:00+03:00",
      "end": "2023-04-15T16:00:00+03:00",
      "allDay": false
    },
    {
      "id": "XqJUY6s",
      "userId": 1,
      "start": "2023-04-16T07:00:00+03:00",
      "end": "2023-04-16T07:30:00+03:00",
      "allDay": false
    },
    {
      "id": "Yni8XJ0",
      "userId": 1,
      "start": "2023-04-13T03:00:00+03:00",
      "end": "2023-04-13T03:30:00+03:00",
      "allDay": false
    },
    {
      "id": "Z5qyXYP",
      "userId": 1,
      "start": "2023-04-13T06:30:00+03:00",
      "end": "2023-04-13T07:00:00+03:00",
      "allDay": false
    },
    {
      "id": "d2B5UZB",
      "userId": 1,
      "start": "2023-04-13T06:30:00+03:00",
      "end": "2023-04-13T07:00:00+03:00",
      "allDay": false
    },
    {
      "id": "dgzdoKr",
      "userId": 1,
      "start": "2023-04-13T05:30:00+03:00",
      "end": "2023-04-13T06:00:00+03:00",
      "allDay": false
    },
    {
      "id": "KJttL4H",
      "userId": 1,
      "start": "2023-04-14T02:00:00+03:00",
      "end": "2023-04-14T02:30:00+03:00",
      "allDay": false
    },
    {
      "id": "trAJZID",
      "userId": 1,
      "start": "2023-04-14T02:00:00+03:00",
      "end": "2023-04-14T02:30:00+03:00",
      "allDay": false
    },
    {
      "id": "SOkjuxF",
      "userId": 1,
      "start": "2023-04-11T09:00:00+03:00",
      "end": "2023-04-11T09:30:00+03:00",
      "allDay": false
    },
    {
      "id": "RYqeJuJ",
      "userId": 1,
      "start": "2023-04-11T09:00:00+03:00",
      "end": "2023-04-11T09:30:00+03:00",
      "allDay": false
    },
    {
      "id": "BVKT4kl",
      "userId": 1,
      "start": "2023-04-20T13:00:00+03:00",
      "end": "2023-04-20T14:00:00+03:00",
      "allDay": false
    },
    {
      "id": "2DrhyG1",
      "userId": 1,
      "start": "2023-04-21T06:00:00+03:00",
      "end": "2023-04-21T06:30:00+03:00",
      "allDay": false
    },
    {
      "id": "idtXm3k",
      "userId": 1,
      "start": "2023-04-21T07:00:00+03:00",
      "end": "2023-04-21T09:00:00+03:00",
      "allDay": false
    },
    {
      "id": "__JkWfT",
      "userId": 1,
      "start": "2023-04-22T07:30:00+03:00",
      "end": "2023-04-22T08:30:00+03:00",
      "allDay": false
    }
  ],
  "bookedDates": []
}